[
    {
        "date": "12.09.2019",
        "goods": "Iphone XS",
        "shop": "Onliner",
        "totalSum": "2000"
    },
    {
        "date": "01.08.2019",
        "goods": "Iphone 8",
        "shop": "Onliner",
        "totalSum": "1000"
    },
    {
        "date": "10.10.2019",
        "goods": "AirPods",
        "shop": "Onliner",
        "totalSum": "399"
    },
    {
        "date": "01.11.2019",
        "goods": "Asus superphone123",
        "shop": "Onliner",
        "totalSum": "700"
    },
    {
        "date": "11.11.2019",
        "goods": "kek",
        "shop": "kek",
        "totalSum": "300"
    }
]
